{
  "project_info": {
    "project_number": "384932372062",
    "firebase_url": "https://kieszonkowy-kardiolog.firebaseio.com",
    "project_id": "kieszonkowy-kardiolog",
    "storage_bucket": "kieszonkowy-kardiolog.appspot.com"
  },
  "client": [
    {
      "client_info": {
        "mobilesdk_app_id": "1:384932372062:android:9d925537ac06015b6d1ecf",
        "android_client_info": {
          "package_name": "com.michalt.kieszonkowykardiolog"
        }
      },
      "oauth_client": [
        {
          "client_id": "384932372062-tnrhc5irddrql7miqr1ff8un1h2smf1i.apps.googleusercontent.com",
          "client_type": 3
        }
      ],
      "api_key": [
        {
          "current_key": "AIzaSyBKrZLBE3gB_eKXIxFbEfV7bH3kCeqvjmo"
        }
      ],
      "services": {
        "appinvite_service": {
          "other_platform_oauth_client": [
            {
              "client_id": "384932372062-tnrhc5irddrql7miqr1ff8un1h2smf1i.apps.googleusercontent.com",
              "client_type": 3
            }
          ]
        }
      }
    }
  ],
  "configuration_version": "1"
}